{
  "name": "critech-debian_essentials",
  "version": "0.1.0",
  "author": "Critech Services",
  "summary": "Puppet Module to manage Debian essentials packages and configurations",
  "license": "Commercial",
  "source": "https://bitbucket.org/critech-services/puppet-debian-essentials",
  "project_page": "https://bitbucket.org/critech-services/puppet-debian-essentials",
  "issues_url": "https://bitbucket.org/critech-services/puppet-debian-essentials/issues",
  "dependencies": [
    {"name":"puppetlabs-stdlib","version_requirement":">= 1.0.0"}
  ],
  "data_provider": null
}

